0
46
92
138
184
230
276
322
368
414
460
506
552
598
643
689
735
781
827
872
918
964
1009
1055
1100
1146
1191
1237
1282
1328
1373
1418
1463
1508
1553
1598
1643
1688
1733
1778
1822
1867
1911
1956
2000
2045
2089
2133
2177
2221
2265
2309
2353
2396
2440
2483
2527
2570
2613
2656
2699
2742
2785
2828
2870
2913
2955
2997
3039
3081
3123
3165
3207
3248
3290
3331
3372
3413
3454
3495
3535
3576
3616
3657
3697
3737
3777
3816
3856
3895
3934
3974
4012
4051
4090
4128
4167
4205
4243
4281
4319
4356
4393
4431
4468
4505
4541
4578
4614
4650
4686
4722
4758
4793
4829
4864
4899
4934
4968
5002
5037
5071
5105
5138
5172
5205
5238
5271
5303
5336
5368
5400
5432
5463
5495
5526
5557
5588
5619
5649
5679
5709
5739
5768
5798
5827
5856
5884
5913
5941
5969
5997
6024
6051
6078
6105
6132
6158
6184
6210
6236
6261
6287
6312
6336
6361
6385
6409
6433
6457
6480
6503
6526
6548
6571
6593
6614
6636
6657
6678
6699
6720
6740
6760
6780
6799
6819
6838
6857
6875
6893
6911
6929
6947
6964
6981
6997
7014
7030
7046
7062
7077
7092
7107
7121
7136
7150
7164
7177
7190
7203
7216
7228
7240
7252
7264
7275
7286
7297
7308
7318
7328
7337
7347
7356
7365
7373
7382
7390
7397
7405
7412
7419
7425
7432
7438
7444
7449
7454
7459
7464
7468
7472
7476
7480
7483
7486
7489
7491
7493
7495
7496
7498
7499
7499
7499